SAD/rtl/saida.vcd
$date
  Thu May 29 09:25:22 2025
$end
$version
  GHDL v0
$end
$timescale
  1 fs
$end
$scope module standard $end
$upscope $end
$scope module textio $end
$upscope $end
$scope module std_logic_1164 $end
$upscope $end
$scope module math_real $end
$upscope $end
$scope module numeric_std $end
$upscope $end
$scope module sad_pack $end
$upscope $end
$scope module sad_tb_test_cases $end
$upscope $end
$scope module env $end
$upscope $end
$scope module sad_tb $end
$var reg 1 ! clk $end
$var reg 1 " rst_a $end
$var reg 1 # enable $end
$var reg 8 $ sample_ori[7:0] $end
$var reg 8 % sample_can[7:0] $end
$var reg 1 & read_mem $end
$var reg 6 ' address[5:0] $end
$var reg 14 ( sad_value[13:0] $end
$var reg 1 ) done $end
$comment test_inputs is not handled $end
$comment test_outputs is not handled $end
$scope module duv $end
$var reg 1 * clk $end
$var reg 1 + rst_a $end
$var reg 1 , enable $end
$var reg 8 - sample_ori[7:0] $end
$var reg 8 . sample_can[7:0] $end
$var reg 1 / read_mem $end
$var reg 6 0 address[5:0] $end
$var reg 14 1 sad_value[13:0] $end
$var reg 1 2 done $end
$var reg 3 3 command_signals[2:0] $end
$var reg 2 4 status_signals[1:0] $end
$scope module bc_inst $end
$var reg 1 5 clk $end
$var reg 1 6 rst_a $end
$var reg 1 7 enable $end
$var reg 2 8 status[1:0] $end
$var reg 3 9 commands[2:0] $end
$var reg 1 : read_mem $end
$var reg 6 ; address[5:0] $end
$var reg 1 < done $end
$var integer 32 = cycle_cnt $end
$var reg 1 > running $end
$var reg 6 ? addr_reg[5:0] $end
$var reg 1 @ read_reg $end
$var reg 1 A block_start_reg $end
$var integer 32 B next_cnt $end
$var reg 1 C next_running $end
$var reg 6 D next_addr[5:0] $end
$var reg 1 E next_read $end
$var reg 1 F next_start $end
$upscope $end
$scope module bo_inst $end
$var reg 1 G clk $end
$var reg 1 H rst_a $end
$var reg 3 I commands[2:0] $end
$var reg 8 J sample_ori[7:0] $end
$var reg 8 K sample_can[7:0] $end
$var reg 14 L sad_result[13:0] $end
$var reg 2 M status[1:0] $end
$var reg 8 N sample_ori_u[7:0] $end
$var reg 8 O sample_can_u[7:0] $end
$var reg 8 P diff_abs[7:0] $end
$var reg 14 Q acc_in[13:0] $end
$var reg 14 R acc_out[13:0] $end
$var reg 15 S acc_sum[14:0] $end
$var reg 1 T acc_clear $end
$var reg 1 U acc_enable $end
$var reg 14 V acc_input[13:0] $end
$scope module abs_inst $end
$var reg 8 W input_a[7:0] $end
$var reg 8 X input_b[7:0] $end
$var reg 8 Y abs_diff[7:0] $end
$var reg 9 Z a_signed[8:0] $end
$var reg 9 [ b_signed[8:0] $end
$var reg 9 \ ab_diff[8:0] $end
$var reg 9 ] ba_diff[8:0] $end
$var reg 1 ^ abs_selector $end
$var reg 8 _ diff_mux[7:0] $end
$scope module diffab $end
$var reg 9 ` input_a[8:0] $end
$var reg 9 a input_b[8:0] $end
$var reg 9 b difference[8:0] $end
$upscope $end
$scope module diffba $end
$var reg 9 c input_a[8:0] $end
$var reg 9 d input_b[8:0] $end
$var reg 9 e difference[8:0] $end
$upscope $end
$scope module mux $end
$var reg 1 f sel $end
$var reg 8 g in_0[7:0] $end
$var reg 8 h in_1[7:0] $end
$var reg 8 i y[7:0] $end
$upscope $end
$upscope $end
$scope module sum_inst $end
$var reg 14 j input_a[13:0] $end
$var reg 14 k input_b[13:0] $end
$var reg 15 l sum[14:0] $end
$upscope $end
$scope module reg_inst $end
$var reg 1 m clk $end
$var reg 1 n enable $end
$var reg 14 o d[13:0] $end
$var reg 14 p q[13:0] $end
$upscope $end
$upscope $end
$upscope $end
$upscope $end
$enddefinitions $end
#0
0!
0"
0#
bUUUUUUUU $
bUUUUUUUU %
0&
b000000 '
bUUUUUUUUUUUUUU (
1)
0*
0+
0,
bUUUUUUUU -
bUUUUUUUU .
0/
b000000 0
bUUUUUUUUUUUUUU 1
12
b000 3
b00 4
05
06
07
b00 8
b000 9
0:
b000000 ;
1<
b0 =
0>
b000000 ?
0@
0A
b0 B
0C
b000000 D
0E
1F
0G
0H
b000 I
bUUUUUUUU J
bUUUUUUUU K
bUUUUUUUUUUUUUU L
b00 M
bUUUUUUUU N
bUUUUUUUU O
bXXXXXXXX P
bUUUUUUUUUUUUUU Q
bUUUUUUUUUUUUUU R
bXXXXXXXXXXXXXXX S
0T
0U
bXXXXXXXXXXXXXX V
bUUUUUUUU W
bUUUUUUUU X
bXXXXXXXX Y
b0UUUUUUUU Z
b0UUUUUUUU [
bXXXXXXXXX \
bXXXXXXXXX ]
1^
bXXXXXXXX _
b0UUUUUUUU `
b0UUUUUUUU a
bXXXXXXXXX b
b0UUUUUUUU c
b0UUUUUUUU d
bXXXXXXXXX e
1f
bXXXXXXXX g
bXXXXXXXX h
bXXXXXXXX i
bUUUUUUUUUUUUUU j
b000000XXXXXXXX k
bXXXXXXXXXXXXXXX l
0m
0n
bXXXXXXXXXXXXXX o
bUUUUUUUUUUUUUU p
#10000000
1!
1*
b010 3
15
b010 9
1A
1G
b010 I
1T
b00000000000000 V
1m
1n
b00000000000000 o
#20000000
0!
1"
0*
1+
05
16
0G
1H
0m
#30000000
1!
b00000000000000 (
1*
b00000000000000 1
b000 3
15
b000 9
0A
1G
b000 I
b00000000000000 L
b00000000000000 R
0T
bXXXXXXXXXXXXXX V
b00000000000000 j
1m
0n
bXXXXXXXXXXXXXX o
b00000000000000 p
#40000000
0!
0*
05
0G
0m
#50000000
1!
1*
15
1G
1m
#60000000
0!
0*
05
0G
0m
#70000000
1!
1*
15
1G
1m
#80000000
0!
0"
0*
0+
05
06
0G
0H
0m
#90000000
1!
1*
b010 3
15
b010 9
1A
1G
b010 I
1T
b00000000000000 V
1m
1n
b00000000000000 o
#100000000
0!
1#
0*
1,
05
17
1C
0G
0m
#110000000
1!
0)
1*
02
15
0<
1>
b1 B
1G
1m
#120000000
0!
0*
05
0G
0m
#130000000
1!
1*
15
b1 =
b10 B
1E
0F
1G
1m
#140000000
0!
1"
0#
0*
1+
0,
05
16
07
0G
1H
0m
#150000000
1!
1)
1*
12
b000 3
15
b000 9
1<
b0 =
0>
0A
b0 B
0C
0E
1F
1G
b000 I
0T
bXXXXXXXXXXXXXX V
1m
0n
bXXXXXXXXXXXXXX o
#160000000
0!
0*
05
0G
0m
#170000000
1!
1*
15
1G
1m
#180000000
0!
0"
0*
0+
05
06
0G
0H
0m
#190000000
1!
1*
b010 3
15
b010 9
1A
1G
b010 I
1T
b00000000000000 V
1m
1n
b00000000000000 o
#200000000
0!
1#
0*
1,
05
17
1C
0G
0m
#210000000
1!
0)
1*
02
15
0<
1>
b1 B
1G
1m
#220000000
0!
0*
05
0G
0m
#230000000
1!
1*
15
b1 =
b10 B
1E
0F
1G
1m
#240000000
0!
0*
05
0G
0m
#250000000
1!
1&
1*
1/
b001 3
15
b001 9
1:
b10 =
1@
0A
b11 B
0E
1G
b001 I
0T
1U
bXXXXXXXXXXXXXX V
1m
bXXXXXXXXXXXXXX o
#260000000
0!
0*
05
0G
0m
#270000000
1!
0&
bXXXXXXXXXXXXXX (
1*
0/
bXXXXXXXXXXXXXX 1
b000 3
15
b000 9
0:
b11 =
0@
b100 B
1G
b000 I
bXXXXXXXXXXXXXX L
bXXXXXXXXXXXXXX R
0U
bXXXXXXXXXXXXXX j
1m
0n
bXXXXXXXXXXXXXX p
#280000000
0!
0*
05
0G
0m
#290000000
1!
1*
15
b100 =
b101 B
b000001 D
1E
1G
1m
#300000000
0!
0*
05
0G
0m
#310000000
1!
1&
b000001 '
1*
1/
b000001 0
b001 3
15
b001 9
1:
b000001 ;
b101 =
b000001 ?
1@
b110 B
b000000 D
0E
1G
b001 I
1U
1m
1n
#320000000
0!
0*
05
0G
0m
#330000000
1!
0&
b000000 '
1*
0/
b000000 0
b000 3
15
b000 9
0:
b000000 ;
b110 =
b000000 ?
0@
b111 B
1G
b000 I
0U
1m
0n
#340000000
0!
0*
05
0G
0m
#350000000
1!
1*
15
b111 =
b1000 B
b000010 D
1E
1G
1m
#360000000
0!
0*
05
0G
0m
#370000000
1!
1&
b000010 '
1*
1/
b000010 0
b001 3
15
b001 9
1:
b000010 ;
b1000 =
b000010 ?
1@
b1001 B
b000000 D
0E
1G
b001 I
1U
1m
1n
#380000000
0!
0*
05
0G
0m
#390000000
1!
0&
b000000 '
1*
0/
b000000 0
b000 3
15
b000 9
0:
b000000 ;
b1001 =
b000000 ?
0@
b1010 B
1G
b000 I
0U
1m
0n
#400000000
0!
0*
05
0G
0m
#410000000
1!
1*
15
b1010 =
b1011 B
b000011 D
1E
1G
1m
#420000000
0!
0*
05
0G
0m
#430000000
1!
1&
b000011 '
1*
1/
b000011 0
b001 3
15
b001 9
1:
b000011 ;
b1011 =
b000011 ?
1@
b1100 B
b000000 D
0E
1G
b001 I
1U
1m
1n
#440000000
0!
0*
05
0G
0m
#450000000
1!
0&
b000000 '
1*
0/
b000000 0
b000 3
15
b000 9
0:
b000000 ;
b1100 =
b000000 ?
0@
b1101 B
1G
b000 I
0U
1m
0n
#460000000
0!
0*
05
0G
0m
#470000000
1!
1*
15
b1101 =
b1110 B
b000100 D
1E
1G
1m
#480000000
0!
0*
05
0G
0m
#490000000
1!
1&
b000100 '
1*
1/
b000100 0
b001 3
15
b001 9
1:
b000100 ;
b1110 =
b000100 ?
1@
b1111 B
b000000 D
0E
1G
b001 I
1U
1m
1n
#500000000
0!
0*
05
0G
0m
#510000000
1!
0&
b000000 '
1*
0/
b000000 0
b000 3
15
b000 9
0:
b000000 ;
b1111 =
b000000 ?
0@
b10000 B
1G
b000 I
0U
1m
0n
#520000000
0!
0*
05
0G
0m
#530000000
1!
1*
15
b10000 =
b10001 B
b000101 D
1E
1G
1m
#540000000
0!
0*
05
0G
0m
#550000000
1!
1&
b000101 '
1*
1/
b000101 0
b001 3
15
b001 9
1:
b000101 ;
b10001 =
b000101 ?
1@
b10010 B
b000000 D
0E
1G
b001 I
1U
1m
1n
#560000000
0!
0*
05
0G
0m
#570000000
1!
0&
b000000 '
1*
0/
b000000 0
b000 3
15
b000 9
0:
b000000 ;
b10010 =
b000000 ?
0@
b10011 B
1G
b000 I
0U
1m
0n
#580000000
0!
0*
05
0G
0m
#590000000
1!
1*
15
b10011 =
b10100 B
b000110 D
1E
1G
1m
#600000000
0!
0*
05
0G
0m
#610000000
1!
1&
b000110 '
1*
1/
b000110 0
b001 3
15
b001 9
1:
b000110 ;
b10100 =
b000110 ?
1@
b10101 B
b000000 D
0E
1G
b001 I
1U
1m
1n
#620000000
0!
0*
05
0G
0m
#630000000
1!
0&
b000000 '
1*
0/
b000000 0
b000 3
15
b000 9
0:
b000000 ;
b10101 =
b000000 ?
0@
b10110 B
1G
b000 I
0U
1m
0n
#640000000
0!
0*
05
0G
0m
#650000000
1!
1*
15
b10110 =
b10111 B
b000111 D
1E
1G
1m
#660000000
0!
0*
05
0G
0m
#670000000
1!
1&
b000111 '
1*
1/
b000111 0
b001 3
15
b001 9
1:
b000111 ;
b10111 =
b000111 ?
1@
b11000 B
b000000 D
0E
1G
b001 I
1U
1m
1n
#680000000
0!
0*
05
0G
0m
#690000000
1!
0&
b000000 '
1*
0/
b000000 0
b000 3
15
b000 9
0:
b000000 ;
b11000 =
b000000 ?
0@
b11001 B
1G
b000 I
0U
1m
0n
#700000000
0!
0*
05
0G
0m
#710000000
1!
1*
15
b11001 =
b11010 B
b001000 D
1E
1G
1m
#720000000
0!
0*
05
0G
0m
#730000000
1!
1&
b001000 '
1*
1/
b001000 0
b001 3
15
b001 9
1:
b001000 ;
b11010 =
b001000 ?
1@
b11011 B
b000000 D
0E
1G
b001 I
1U
1m
1n
#740000000
0!
0*
05
0G
0m
#750000000
1!
0&
b000000 '
1*
0/
b000000 0
b000 3
15
b000 9
0:
b000000 ;
b11011 =
b000000 ?
0@
b11100 B
1G
b000 I
0U
1m
0n
#760000000
0!
0*
05
0G
0m
#770000000
1!
1*
15
b11100 =
b11101 B
b001001 D
1E
1G
1m
#780000000
0!
0*
05
0G
0m
#790000000
1!
1&
b001001 '
1*
1/
b001001 0
b001 3
15
b001 9
1:
b001001 ;
b11101 =
b001001 ?
1@
b11110 B
b000000 D
0E
1G
b001 I
1U
1m
1n
#800000000
0!
0*
05
0G
0m
#810000000
1!
0&
b000000 '
1*
0/
b000000 0
b000 3
15
b000 9
0:
b000000 ;
b11110 =
b000000 ?
0@
b11111 B
1G
b000 I
0U
1m
0n
#820000000
0!
0*
05
0G
0m
#830000000
1!
1*
15
b11111 =
b100000 B
b001010 D
1E
1G
1m
#840000000
0!
0*
05
0G
0m
#850000000
1!
1&
b001010 '
1*
1/
b001010 0
b001 3
15
b001 9
1:
b001010 ;
b100000 =
b001010 ?
1@
b100001 B
b000000 D
0E
1G
b001 I
1U
1m
1n
#860000000
0!
0*
05
0G
0m
#870000000
1!
0&
b000000 '
1*
0/
b000000 0
b000 3
15
b000 9
0:
b000000 ;
b100001 =
b000000 ?
0@
b100010 B
1G
b000 I
0U
1m
0n
#880000000
0!
0*
05
0G
0m
#890000000
1!
1*
15
b100010 =
b100011 B
b001011 D
1E
1G
1m
#900000000
0!
0*
05
0G
0m
#910000000
1!
1&
b001011 '
1*
1/
b001011 0
b001 3
15
b001 9
1:
b001011 ;
b100011 =
b001011 ?
1@
b100100 B
b000000 D
0E
1G
b001 I
1U
1m
1n
#920000000
0!
0*
05
0G
0m
#930000000
1!
0&
b000000 '
1*
0/
b000000 0
b000 3
15
b000 9
0:
b000000 ;
b100100 =
b000000 ?
0@
b100101 B
1G
b000 I
0U
1m
0n
#940000000
0!
0*
05
0G
0m
#950000000
1!
1*
15
b100101 =
b100110 B
b001100 D
1E
1G
1m
#960000000
0!
0*
05
0G
0m
#970000000
1!
1&
b001100 '
1*
1/
b001100 0
b001 3
15
b001 9
1:
b001100 ;
b100110 =
b001100 ?
1@
b100111 B
b000000 D
0E
1G
b001 I
1U
1m
1n
#980000000
0!
0*
05
0G
0m
#990000000
1!
0&
b000000 '
1*
0/
b000000 0
b000 3
15
b000 9
0:
b000000 ;
b100111 =
b000000 ?
0@
b101000 B
1G
b000 I
0U
1m
0n
#1000000000
0!
0*
05
0G
0m
#1010000000
1!
1*
15
b101000 =
b101001 B
b001101 D
1E
1G
1m
#1020000000
0!
0*
05
0G
0m
#1030000000
1!
1&
b001101 '
1*
1/
b001101 0
b001 3
15
b001 9
1:
b001101 ;
b101001 =
b001101 ?
1@
b101010 B
b000000 D
0E
1G
b001 I
1U
1m
1n
#1040000000
0!
0*
05
0G
0m
#1050000000
1!
0&
b000000 '
1*
0/
b000000 0
b000 3
15
b000 9
0:
b000000 ;
b101010 =
b000000 ?
0@
b101011 B
1G
b000 I
0U
1m
0n
#1060000000
0!
0*
05
0G
0m
#1070000000
1!
1*
15
b101011 =
b101100 B
b001110 D
1E
1G
1m
#1080000000
0!
0*
05
0G
0m
#1090000000
1!
1&
b001110 '
1*
1/
b001110 0
b001 3
15
b001 9
1:
b001110 ;
b101100 =
b001110 ?
1@
b101101 B
b000000 D
0E
1G
b001 I
1U
1m
1n
#1100000000
0!
0*
05
0G
0m
#1110000000
1!
0&
b000000 '
1*
0/
b000000 0
b000 3
15
b000 9
0:
b000000 ;
b101101 =
b000000 ?
0@
b101110 B
1G
b000 I
0U
1m
0n
#1120000000
0!
0*
05
0G
0m
#1130000000
1!
1*
15
b101110 =
b101111 B
b001111 D
1E
1G
1m
#1140000000
0!
0*
05
0G
0m
#1150000000
1!
1&
b001111 '
1*
1/
b001111 0
b001 3
15
b001 9
1:
b001111 ;
b101111 =
b001111 ?
1@
b110000 B
b000000 D
0E
1G
b001 I
1U
1m
1n
#1160000000
0!
0*
05
0G
0m
#1170000000
1!
0&
b000000 '
1*
0/
b000000 0
b000 3
15
b000 9
0:
b000000 ;
b110000 =
b000000 ?
0@
b110001 B
1G
b000 I
0U
1m
0n
#1180000000
0!
0*
05
0G
0m
#1190000000
1!
1*
15
b110001 =
b110010 B
b010000 D
1E
1G
1m
#1200000000
0!
0*
05
0G
0m
#1210000000
1!
1&
b010000 '
1*
1/
b010000 0
b001 3
15
b001 9
1:
b010000 ;
b110010 =
b010000 ?
1@
b110011 B
b000000 D
0E
1G
b001 I
1U
1m
1n
#1220000000
0!
0*
05
0G
0m
#1230000000
1!
0&
b000000 '
1*
0/
b000000 0
b000 3
15
b000 9
0:
b000000 ;
b110011 =
b000000 ?
0@
b110100 B
1G
b000 I
0U
1m
0n
#1240000000
0!
0*
05
0G
0m
#1250000000
1!
1*
15
b110100 =
b110101 B
b010001 D
1E
1G
1m
#1260000000
0!
0*
05
0G
0m
#1270000000
1!
1&
b010001 '
1*
1/
b010001 0
b001 3
15
b001 9
1:
b010001 ;
b110101 =
b010001 ?
1@
b110110 B
b000000 D
0E
1G
b001 I
1U
1m
1n
#1280000000
0!
0*
05
0G
0m
#1290000000
1!
0&
b000000 '
1*
0/
b000000 0
b000 3
15
b000 9
0:
b000000 ;
b110110 =
b000000 ?
0@
b110111 B
1G
b000 I
0U
1m
0n
#1300000000
0!
0*
05
0G
0m
#1310000000
1!
1*
15
b110111 =
b111000 B
b010010 D
1E
1G
1m
#1320000000
0!
0*
05
0G
0m
#1330000000
1!
1&
b010010 '
1*
1/
b010010 0
b001 3
15
b001 9
1:
b010010 ;
b111000 =
b010010 ?
1@
b111001 B
b000000 D
0E
1G
b001 I
1U
1m
1n
#1340000000
0!
0*
05
0G
0m
#1350000000
1!
0&
b000000 '
1*
0/
b000000 0
b000 3
15
b000 9
0:
b000000 ;
b111001 =
b000000 ?
0@
b111010 B
1G
b000 I
0U
1m
0n
#1360000000
0!
0*
05
0G
0m
#1370000000
1!
1*
15
b111010 =
b111011 B
b010011 D
1E
1G
1m
#1380000000
0!
0*
05
0G
0m
#1390000000
1!
1&
b010011 '
1*
1/
b010011 0
b001 3
15
b001 9
1:
b010011 ;
b111011 =
b010011 ?
1@
b111100 B
b000000 D
0E
1G
b001 I
1U
1m
1n
#1400000000
0!
0*
05
0G
0m
#1410000000
1!
0&
b000000 '
1*
0/
b000000 0
b000 3
15
b000 9
0:
b000000 ;
b111100 =
b000000 ?
0@
b111101 B
1G
b000 I
0U
1m
0n
#1420000000
0!
0*
05
0G
0m
#1430000000
1!
1*
15
b111101 =
b111110 B
b010100 D
1E
1G
1m
#1440000000
0!
0*
05
0G
0m
#1450000000
1!
1&
b010100 '
1*
1/
b010100 0
b001 3
15
b001 9
1:
b010100 ;
b111110 =
b010100 ?
1@
b111111 B
b000000 D
0E
1G
b001 I
1U
1m
1n
#1460000000
0!
0*
05
0G
0m
#1470000000
1!
0&
b000000 '
1*
0/
b000000 0
b000 3
15
b000 9
0:
b000000 ;
b111111 =
b000000 ?
0@
b1000000 B
1G
b000 I
0U
1m
0n
#1480000000
0!
0*
05
0G
0m
#1490000000
1!
1*
15
b1000000 =
b1000001 B
b010101 D
1E
1G
1m
#1500000000
0!
0*
05
0G
0m
#1510000000
1!
1&
b010101 '
1*
1/
b010101 0
b001 3
15
b001 9
1:
b010101 ;
b1000001 =
b010101 ?
1@
b1000010 B
b000000 D
0E
1G
b001 I
1U
1m
1n
#1520000000
0!
0*
05
0G
0m
#1530000000
1!
0&
b000000 '
1*
0/
b000000 0
b000 3
15
b000 9
0:
b000000 ;
b1000010 =
b000000 ?
0@
b1000011 B
1G
b000 I
0U
1m
0n
#1540000000
0!
0*
05
0G
0m
#1550000000
1!
1*
15
b1000011 =
b1000100 B
b010110 D
1E
1G
1m
#1560000000
0!
0*
05
0G
0m
#1570000000
1!
1&
b010110 '
1*
1/
b010110 0
b001 3
15
b001 9
1:
b010110 ;
b1000100 =
b010110 ?
1@
b1000101 B
b000000 D
0E
1G
b001 I
1U
1m
1n
#1580000000
0!
0*
05
0G
0m
#1590000000
1!
0&
b000000 '
1*
0/
b000000 0
b000 3
15
b000 9
0:
b000000 ;
b1000101 =
b000000 ?
0@
b1000110 B
1G
b000 I
0U
1m
0n
#1600000000
0!
0*
05
0G
0m
#1610000000
1!
1*
15
b1000110 =
b1000111 B
b010111 D
1E
1G
1m
#1620000000
0!
0*
05
0G
0m
#1630000000
1!
1&
b010111 '
1*
1/
b010111 0
b001 3
15
b001 9
1:
b010111 ;
b1000111 =
b010111 ?
1@
b1001000 B
b000000 D
0E
1G
b001 I
1U
1m
1n
#1640000000
0!
0*
05
0G
0m
#1650000000
1!
0&
b000000 '
1*
0/
b000000 0
b000 3
15
b000 9
0:
b000000 ;
b1001000 =
b000000 ?
0@
b1001001 B
1G
b000 I
0U
1m
0n
#1660000000
0!
0*
05
0G
0m
#1670000000
1!
1*
15
b1001001 =
b1001010 B
b011000 D
1E
1G
1m
#1680000000
0!
0*
05
0G
0m
#1690000000
1!
1&
b011000 '
1*
1/
b011000 0
b001 3
15
b001 9
1:
b011000 ;
b1001010 =
b011000 ?
1@
b1001011 B
b000000 D
0E
1G
b001 I
1U
1m
1n
#1700000000
0!
0*
05
0G
0m
#1710000000
1!
0&
b000000 '
1*
0/
b000000 0
b000 3
15
b000 9
0:
b000000 ;
b1001011 =
b000000 ?
0@
b1001100 B
1G
b000 I
0U
1m
0n
#1720000000
0!
0*
05
0G
0m
#1730000000
1!
1*
15
b1001100 =
b1001101 B
b011001 D
1E
1G
1m
#1740000000
0!
0*
05
0G
0m
#1750000000
1!
1&
b011001 '
1*
1/
b011001 0
b001 3
15
b001 9
1:
b011001 ;
b1001101 =
b011001 ?
1@
b1001110 B
b000000 D
0E
1G
b001 I
1U
1m
1n
#1760000000
0!
0*
05
0G
0m
#1770000000
1!
0&
b000000 '
1*
0/
b000000 0
b000 3
15
b000 9
0:
b000000 ;
b1001110 =
b000000 ?
0@
b1001111 B
1G
b000 I
0U
1m
0n
#1780000000
0!
0*
05
0G
0m
#1790000000
1!
1*
15
b1001111 =
b1010000 B
b011010 D
1E
1G
1m
#1800000000
0!
0*
05
0G
0m
#1810000000
1!
1&
b011010 '
1*
1/
b011010 0
b001 3
15
b001 9
1:
b011010 ;
b1010000 =
b011010 ?
1@
b1010001 B
b000000 D
0E
1G
b001 I
1U
1m
1n
#1820000000
0!
0*
05
0G
0m
#1830000000
1!
0&
b000000 '
1*
0/
b000000 0
b000 3
15
b000 9
0:
b000000 ;
b1010001 =
b000000 ?
0@
b1010010 B
1G
b000 I
0U
1m
0n
#1840000000
0!
0*
05
0G
0m
#1850000000
1!
1*
15
b1010010 =
b1010011 B
b011011 D
1E
1G
1m
#1860000000
0!
0*
05
0G
0m
#1870000000
1!
1&
b011011 '
1*
1/
b011011 0
b001 3
15
b001 9
1:
b011011 ;
b1010011 =
b011011 ?
1@
b1010100 B
b000000 D
0E
1G
b001 I
1U
1m
1n
#1880000000
0!
0*
05
0G
0m
#1890000000
1!
0&
b000000 '
1*
0/
b000000 0
b000 3
15
b000 9
0:
b000000 ;
b1010100 =
b000000 ?
0@
b1010101 B
1G
b000 I
0U
1m
0n
#1900000000
0!
0*
05
0G
0m
#1910000000
1!
1*
15
b1010101 =
b1010110 B
b011100 D
1E
1G
1m
#1920000000
0!
0*
05
0G
0m
#1930000000
1!
1&
b011100 '
1*
1/
b011100 0
b001 3
15
b001 9
1:
b011100 ;
b1010110 =
b011100 ?
1@
b1010111 B
b000000 D
0E
1G
b001 I
1U
1m
1n
#1940000000
0!
0*
05
0G
0m
#1950000000
1!
0&
b000000 '
1*
0/
b000000 0
b000 3
15
b000 9
0:
b000000 ;
b1010111 =
b000000 ?
0@
b1011000 B
1G
b000 I
0U
1m
0n
#1960000000
0!
0*
05
0G
0m
#1970000000
1!
1*
15
b1011000 =
b1011001 B
b011101 D
1E
1G
1m
#1980000000
0!
0*
05
0G
0m
#1990000000
1!
1&
b011101 '
1*
1/
b011101 0
b001 3
15
b001 9
1:
b011101 ;
b1011001 =
b011101 ?
1@
b1011010 B
b000000 D
0E
1G
b001 I
1U
1m
1n
#2000000000
0!
0*
05
0G
0m
#2010000000
1!
0&
b000000 '
1*
0/
b000000 0
b000 3
15
b000 9
0:
b000000 ;
b1011010 =
b000000 ?
0@
b1011011 B
1G
b000 I
0U
1m
0n
#2020000000
0!
0*
05
0G
0m
#2030000000
1!
1*
15
b1011011 =
b1011100 B
b011110 D
1E
1G
1m
#2040000000
0!
0*
05
0G
0m
#2050000000
1!
1&
b011110 '
1*
1/
b011110 0
b001 3
15
b001 9
1:
b011110 ;
b1011100 =
b011110 ?
1@
b1011101 B
b000000 D
0E
1G
b001 I
1U
1m
1n
#2060000000
0!
0*
05
0G
0m
#2070000000
1!
0&
b000000 '
1*
0/
b000000 0
b000 3
15
b000 9
0:
b000000 ;
b1011101 =
b000000 ?
0@
b1011110 B
1G
b000 I
0U
1m
0n
#2080000000
0!
0*
05
0G
0m
#2090000000
1!
1*
15
b1011110 =
b1011111 B
b011111 D
1E
1G
1m
#2100000000
0!
0*
05
0G
0m
#2110000000
1!
1&
b011111 '
1*
1/
b011111 0
b001 3
15
b001 9
1:
b011111 ;
b1011111 =
b011111 ?
1@
b1100000 B
b000000 D
0E
1G
b001 I
1U
1m
1n
#2120000000
0!
0*
05
0G
0m
#2130000000
1!
0&
b000000 '
1*
0/
b000000 0
b000 3
15
b000 9
0:
b000000 ;
b1100000 =
b000000 ?
0@
b1100001 B
1G
b000 I
0U
1m
0n
#2140000000
0!
0*
05
0G
0m
#2150000000
1!
1*
15
b1100001 =
b1100010 B
b100000 D
1E
1G
1m
#2160000000
0!
0*
05
0G
0m
#2170000000
1!
1&
b100000 '
1*
1/
b100000 0
b001 3
15
b001 9
1:
b100000 ;
b1100010 =
b100000 ?
1@
b1100011 B
b000000 D
0E
1G
b001 I
1U
1m
1n
#2180000000
0!
0*
05
0G
0m
#2190000000
1!
0&
b000000 '
1*
0/
b000000 0
b000 3
15
b000 9
0:
b000000 ;
b1100011 =
b000000 ?
0@
b1100100 B
1G
b000 I
0U
1m
0n
#2200000000
0!
0*
05
0G
0m
#2210000000
1!
1*
15
b1100100 =
b1100101 B
b100001 D
1E
1G
1m
#2220000000
0!
0*
05
0G
0m
#2230000000
1!
1&
b100001 '
1*
1/
b100001 0
b001 3
15
b001 9
1:
b100001 ;
b1100101 =
b100001 ?
1@
b1100110 B
b000000 D
0E
1G
b001 I
1U
1m
1n
#2240000000
0!
0*
05
0G
0m
#2250000000
1!
0&
b000000 '
1*
0/
b000000 0
b000 3
15
b000 9
0:
b000000 ;
b1100110 =
b000000 ?
0@
b1100111 B
1G
b000 I
0U
1m
0n
#2260000000
0!
0*
05
0G
0m
#2270000000
1!
1*
15
b1100111 =
b1101000 B
b100010 D
1E
1G
1m
#2280000000
0!
0*
05
0G
0m
#2290000000
1!
1&
b100010 '
1*
1/
b100010 0
b001 3
15
b001 9
1:
b100010 ;
b1101000 =
b100010 ?
1@
b1101001 B
b000000 D
0E
1G
b001 I
1U
1m
1n
#2300000000
0!
0*
05
0G
0m
#2310000000
1!
0&
b000000 '
1*
0/
b000000 0
b000 3
15
b000 9
0:
b000000 ;
b1101001 =
b000000 ?
0@
b1101010 B
1G
b000 I
0U
1m
0n
#2320000000
0!
0*
05
0G
0m
#2330000000
1!
1*
15
b1101010 =
b1101011 B
b100011 D
1E
1G
1m
#2340000000
0!
0*
05
0G
0m
#2350000000
1!
1&
b100011 '
1*
1/
b100011 0
b001 3
15
b001 9
1:
b100011 ;
b1101011 =
b100011 ?
1@
b1101100 B
b000000 D
0E
1G
b001 I
1U
1m
1n
#2360000000
0!
0*
05
0G
0m
#2370000000
1!
0&
b000000 '
1*
0/
b000000 0
b000 3
15
b000 9
0:
b000000 ;
b1101100 =
b000000 ?
0@
b1101101 B
1G
b000 I
0U
1m
0n
#2380000000
0!
0*
05
0G
0m
#2390000000
1!
1*
15
b1101101 =
b1101110 B
b100100 D
1E
1G
1m
#2400000000
0!
0*
05
0G
0m
#2410000000
1!
1&
b100100 '
1*
1/
b100100 0
b001 3
15
b001 9
1:
b100100 ;
b1101110 =
b100100 ?
1@
b1101111 B
b000000 D
0E
1G
b001 I
1U
1m
1n
#2420000000
0!
0*
05
0G
0m
#2430000000
1!
0&
b000000 '
1*
0/
b000000 0
b000 3
15
b000 9
0:
b000000 ;
b1101111 =
b000000 ?
0@
b1110000 B
1G
b000 I
0U
1m
0n
#2440000000
0!
0*
05
0G
0m
#2450000000
1!
1*
15
b1110000 =
b1110001 B
b100101 D
1E
1G
1m
#2460000000
0!
0*
05
0G
0m
#2470000000
1!
1&
b100101 '
1*
1/
b100101 0
b001 3
15
b001 9
1:
b100101 ;
b1110001 =
b100101 ?
1@
b1110010 B
b000000 D
0E
1G
b001 I
1U
1m
1n
#2480000000
0!
0*
05
0G
0m
#2490000000
1!
0&
b000000 '
1*
0/
b000000 0
b000 3
15
b000 9
0:
b000000 ;
b1110010 =
b000000 ?
0@
b1110011 B
1G
b000 I
0U
1m
0n
#2500000000
0!
0*
05
0G
0m
#2510000000
1!
1*
15
b1110011 =
b1110100 B
b100110 D
1E
1G
1m
#2520000000
0!
0*
05
0G
0m
#2530000000
1!
1&
b100110 '
1*
1/
b100110 0
b001 3
15
b001 9
1:
b100110 ;
b1110100 =
b100110 ?
1@
b1110101 B
b000000 D
0E
1G
b001 I
1U
1m
1n
#2540000000
0!
0*
05
0G
0m
#2550000000
1!
0&
b000000 '
1*
0/
b000000 0
b000 3
15
b000 9
0:
b000000 ;
b1110101 =
b000000 ?
0@
b1110110 B
1G
b000 I
0U
1m
0n
#2560000000
0!
0*
05
0G
0m
#2570000000
1!
1*
15
b1110110 =
b1110111 B
b100111 D
1E
1G
1m
#2580000000
0!
0*
05
0G
0m
